<?xml version="1.0" encoding="utf-8"?>
<!-- Generator: Adobe Illustrator 16.0.0, SVG Export Plug-In . SVG Version: 6.00 Build 0)  -->
<!DOCTYPE svg PUBLIC "-//W3C//DTD SVG 1.1//EN" "http://www.w3.org/Graphics/SVG/1.1/DTD/svg11.dtd">
<svg version="1.1" id="Layer_1" xmlns="http://www.w3.org/2000/svg" xmlns:xlink="http://www.w3.org/1999/xlink" x="0px" y="0px"
	 width="176px" height="151px" viewBox="0 0 176 151" enable-background="new 0 0 176 151" xml:space="preserve">
<path fill="#BCBCBC" d="M133.154,73.442l-6.769,6.769L88.063,47.559L49.74,80.715l-6.769-6.769l45.092-39.925L133.154,73.442z
	 M73,87H61v14h12V87z M121,117H97V88H80v29H54V83.252l33.5-28.5l33.5,28.5V117z M115,87h-12v14h12V87z"/>
</svg>
