<?xml version="1.0" encoding="utf-8"?>
<!-- Generator: Adobe Illustrator 16.0.0, SVG Export Plug-In . SVG Version: 6.00 Build 0)  -->
<!DOCTYPE svg PUBLIC "-//W3C//DTD SVG 1.1//EN" "http://www.w3.org/Graphics/SVG/1.1/DTD/svg11.dtd">
<svg version="1.1" id="Layer_1" xmlns="http://www.w3.org/2000/svg" xmlns:xlink="http://www.w3.org/1999/xlink" x="0px" y="0px"
	 width="131px" height="112px" viewBox="0 0 131 112" enable-background="new 0 0 131 112" xml:space="preserve">
<path fill="#BCBCBC" d="M40.495,46.024c-0.662,0.662-1.735,0.662-2.396,0s-0.662-1.734,0-2.397c0.662-0.662,1.735-0.662,2.396,0
	C41.158,44.29,41.158,45.362,40.495,46.024z M45.289,48.42c-0.661-0.66-1.734-0.66-2.396,0c-0.661,0.661-0.661,1.736,0,2.396
	c0.662,0.662,1.735,0.662,2.396,0C45.951,50.156,45.951,49.081,45.289,48.42z M50.083,53.214c-0.662-0.662-1.735-0.662-2.396,0
	c-0.662,0.662-0.662,1.735,0,2.396c0.661,0.663,1.735,0.663,2.396,0C50.745,54.949,50.745,53.876,50.083,53.214z M54.875,58.008
	c-0.662-0.662-1.734-0.662-2.396,0c-0.662,0.661-0.662,1.734,0,2.396c0.662,0.663,1.734,0.663,2.396,0
	C55.537,59.742,55.537,58.669,54.875,58.008z M35.912,44.958c-0.684-0.683-1.791-0.683-2.472,0c-0.684,0.684-0.684,1.792,0,2.474
	c0.681,0.683,1.788,0.683,2.472,0C36.594,46.75,36.594,45.642,35.912,44.958z M41.657,50.703c-0.683-0.682-1.79-0.682-2.474,0
	c-0.683,0.683-0.683,1.789,0,2.473c0.684,0.683,1.791,0.683,2.474,0C42.338,52.492,42.338,51.386,41.657,50.703z M47.8,56.846
	c-0.682-0.682-1.79-0.682-2.473,0c-0.683,0.683-0.683,1.791,0,2.475c0.683,0.682,1.791,0.682,2.473,0
	C48.482,58.637,48.482,57.528,47.8,56.846z M53.545,62.592c-0.684-0.683-1.79-0.683-2.474,0c-0.682,0.682-0.682,1.789,0,2.473
	c0.684,0.682,1.791,0.682,2.474,0C54.227,64.381,54.227,63.273,53.545,62.592z M30.416,46.09c-0.727-0.727-1.908-0.727-2.636,0
	c-0.728,0.729-0.728,1.909,0,2.638c0.728,0.728,1.909,0.728,2.636,0C31.144,47.999,31.144,46.818,30.416,46.09z M37.54,53.214
	c-0.728-0.728-1.909-0.728-2.636,0c-0.729,0.729-0.729,1.909,0,2.637c0.728,0.728,1.909,0.728,2.636,0S38.268,53.942,37.54,53.214z
	 M45.489,61.162c-0.729-0.729-1.909-0.729-2.636,0c-0.729,0.728-0.729,1.909,0,2.637c0.728,0.728,1.907,0.728,2.636,0
	C46.217,63.071,46.217,61.89,45.489,61.162z M52.412,68.086c-0.728-0.729-1.909-0.729-2.636,0c-0.729,0.728-0.729,1.909,0,2.637
	c0.729,0.729,1.908,0.729,2.636,0C53.14,69.995,53.14,68.813,52.412,68.086z M23.578,46.556c-0.806-0.807-2.113-0.807-2.921,0
	c-0.806,0.808-0.806,2.115,0,2.923c0.808,0.807,2.115,0.807,2.921,0C24.385,48.671,24.385,47.363,23.578,46.556z M32.67,55.648
	c-0.807-0.808-2.115-0.808-2.92,0c-0.808,0.807-0.808,2.114,0,2.921c0.806,0.808,2.113,0.808,2.92,0
	C33.478,57.763,33.478,56.455,32.67,55.648z M43.076,66.055c-0.807-0.807-2.115-0.807-2.922,0s-0.807,2.113,0,2.92
	c0.807,0.809,2.115,0.809,2.922,0C43.883,68.168,43.883,66.861,43.076,66.055z M51.947,74.924c-0.808-0.806-2.115-0.806-2.923,0.001
	c-0.806,0.807-0.806,2.114,0,2.921c0.808,0.808,2.115,0.808,2.923,0C52.753,77.039,52.753,75.731,51.947,74.924z M59.94,50.213
	c0.235-0.234-1.958-2.513-4.382-5.006L61,39.578v-5.99l-8.443,8.63c-2.328-2.24-4.278-4.019-4.5-3.796
	c-2.196,2.194-6.441-0.354-6.441-0.354l-3.13,3.153c0,0,6.551,5.217,9.99,8.654c3.437,3.439,8.66,9.979,8.66,9.979l3.156-3.152
	C60.291,56.701,57.745,52.408,59.94,50.213z M90.191,49.208c-0.617,0.617-1.618,0.617-2.235,0c-0.617-0.618-0.617-1.618,0-2.236
	s1.618-0.618,2.235,0C90.81,47.59,90.81,48.59,90.191,49.208z M94.662,51.441c-0.616-0.615-1.617-0.615-2.234,0
	c-0.617,0.617-0.617,1.619,0,2.235c0.617,0.618,1.618,0.618,2.234,0C95.279,53.061,95.279,52.059,94.662,51.441z M99.133,55.913
	c-0.617-0.617-1.618-0.617-2.234,0c-0.617,0.618-0.617,1.619,0,2.234c0.616,0.618,1.617,0.618,2.234,0
	C99.75,57.532,99.75,56.531,99.133,55.913z M103.604,60.384c-0.617-0.617-1.617-0.617-2.235,0c-0.617,0.617-0.617,1.618,0,2.235
	c0.618,0.618,1.618,0.618,2.235,0C104.221,62.002,104.221,61.001,103.604,60.384z M85.916,48.213c-0.638-0.636-1.67-0.636-2.306,0
	c-0.638,0.638-0.638,1.671,0,2.308c0.636,0.636,1.668,0.636,2.306,0C86.553,49.884,86.553,48.851,85.916,48.213z M91.275,53.571
	c-0.639-0.636-1.67-0.636-2.308,0c-0.638,0.637-0.638,1.669,0,2.307c0.638,0.636,1.669,0.636,2.308,0
	C91.91,55.24,91.91,54.208,91.275,53.571z M97.005,59.301c-0.637-0.637-1.669-0.637-2.308,0c-0.637,0.637-0.637,1.67,0,2.308
	c0.639,0.636,1.671,0.636,2.308,0C97.641,60.971,97.641,59.938,97.005,59.301z M102.362,64.659c-0.638-0.636-1.669-0.636-2.308,0
	c-0.636,0.637-0.636,1.669,0,2.307c0.639,0.636,1.67,0.636,2.308,0C102.999,66.328,102.999,65.296,102.362,64.659z M80.791,49.269
	c-0.679-0.678-1.78-0.678-2.459,0c-0.679,0.68-0.679,1.78,0,2.461c0.679,0.679,1.78,0.679,2.459,0
	C81.471,51.049,81.471,49.948,80.791,49.269z M87.436,55.913c-0.679-0.679-1.781-0.679-2.46,0c-0.679,0.68-0.679,1.78,0,2.459
	s1.781,0.679,2.46,0C88.113,57.693,88.113,56.593,87.436,55.913z M94.849,63.326c-0.681-0.68-1.78-0.68-2.458,0
	c-0.681,0.679-0.681,1.781,0,2.46c0.678,0.679,1.777,0.679,2.458,0C95.527,65.107,95.527,64.005,94.849,63.326z M101.307,69.783
	c-0.68-0.678-1.781-0.678-2.459,0c-0.68,0.679-0.68,1.781,0,2.46c0.679,0.68,1.779,0.68,2.459,0
	C101.984,71.564,101.984,70.462,101.307,69.783z M74.412,49.703c-0.751-0.752-1.971-0.752-2.724,0c-0.752,0.754-0.752,1.973,0,2.727
	c0.753,0.752,1.972,0.752,2.724,0C75.166,51.676,75.166,50.457,74.412,49.703z M82.893,58.184c-0.752-0.753-1.972-0.753-2.724,0
	c-0.753,0.753-0.753,1.972,0,2.725c0.752,0.753,1.972,0.753,2.724,0C83.646,60.155,83.646,58.937,82.893,58.184z M92.599,67.889
	c-0.753-0.752-1.973-0.752-2.726,0c-0.753,0.753-0.753,1.972,0,2.725s1.973,0.753,2.726,0C93.351,69.86,93.351,68.642,92.599,67.889
	z M100.872,76.161c-0.753-0.751-1.974-0.751-2.726,0.001s-0.752,1.972,0,2.724c0.752,0.754,1.973,0.754,2.726,0
	C101.624,78.134,101.624,76.914,100.872,76.161z M108.328,53.114c0.219-0.219-1.484-2.344-3.745-4.669l5.417-5.25v-5.587
	l-8.216,8.049c-2.172-2.089-4.161-3.748-4.368-3.54c-2.049,2.046-6.095-0.331-6.095-0.331l-2.962,2.941c0,0,6.089,4.865,9.297,8.071
	c3.206,3.208,8.065,9.307,8.065,9.307l2.938-2.939C108.66,59.166,106.279,55.162,108.328,53.114z"/>
</svg>
