<?xml version="1.0" encoding="utf-8"?>
<!-- Generator: Adobe Illustrator 16.0.0, SVG Export Plug-In . SVG Version: 6.00 Build 0)  -->
<!DOCTYPE svg PUBLIC "-//W3C//DTD SVG 1.1//EN" "http://www.w3.org/Graphics/SVG/1.1/DTD/svg11.dtd">
<svg version="1.1" id="Layer_1" xmlns="http://www.w3.org/2000/svg" xmlns:xlink="http://www.w3.org/1999/xlink" x="0px" y="0px"
	 width="131px" height="112px" viewBox="0 0 131 112" enable-background="new 0 0 131 112" xml:space="preserve">
<path fill="#BCBCBC" d="M75.693,45.633c0,5.94-4.816,10.757-10.757,10.757c-5.944,0-10.757-4.816-10.757-10.757
	c0-5.941,4.813-10.754,10.757-10.754C70.877,34.879,75.693,39.691,75.693,45.633z M88.133,73.613v5.957h-46.6v-5.957
	c0-9.428,15.352-13.113,23.3-13.113C73.355,60.5,88.133,64.186,88.133,73.613z"/>
</svg>
